cell_line,transcription_factor,run,background_run,fastq_1,fastq_2,background_1,background_2,bed_file,snp_list
K562,HNRNPC,K562-HNRNPC-1,K562-HNRNPC_mock-1,umi_name/K562-HNRNPC-1.1.fastq.gz,umi_name/K562-HNRNPC-1.2.fastq.gz,umi_name/K562-HNRNPC_mock-1.1.fastq.gz,umi_name/K562-HNRNPC_mock-1.2.fastq.gz,data/empty_bed.bed,data/K562_hetSNP.txt
K562,HNRNPC,K562-HNRNPC-2,K562-HNRNPC_mock-1,umi_name/K562-HNRNPC-2.1.fastq.gz,umi_name/K562-HNRNPC-2.2.fastq.gz,umi_name/K562-HNRNPC_mock-1.1.fastq.gz,umi_name/K562-HNRNPC_mock-1.2.fastq.gz,data/empty_bed.bed,data/K562_hetSNP.txt
K562,SUPV3L1,K562-SUPV3L1-1,K562-SUPV3L1_mock-1,umi_name/K562-SUPV3L1-1.1.fastq.gz,umi_name/K562-SUPV3L1-1.2.fastq.gz,umi_name/K562-SUPV3L1_mock-1.1.fastq.gz,umi_name/K562-SUPV3L1_mock-1.2.fastq.gz,data/empty_bed.bed,data/K562_hetSNP.txt
K562,SUPV3L1,K562-SUPV3L1-2,K562-SUPV3L1_mock-1,umi_name/K562-SUPV3L1-2.1.fastq.gz,umi_name/K562-SUPV3L1-2.2.fastq.gz,umi_name/K562-SUPV3L1_mock-1.1.fastq.gz,umi_name/K562-SUPV3L1_mock-1.2.fastq.gz,data/empty_bed.bed,data/K562_hetSNP.txt
K562,TIA1,K562-TIA1-1,K562-TIA1_mock-1,umi_name/K562-TIA1-1.1.fastq.gz,umi_name/K562-TIA1-1.2.fastq.gz,umi_name/K562-TIA1_mock-1.1.fastq.gz,umi_name/K562-TIA1_mock-1.2.fastq.gz,data/empty_bed.bed,data/K562_hetSNP.txt
K562,TIA1,K562-TIA1-2,K562-TIA1_mock-1,umi_name/K562-TIA1-2.1.fastq.gz,umi_name/K562-TIA1-2.2.fastq.gz,umi_name/K562-TIA1_mock-1.1.fastq.gz,umi_name/K562-TIA1_mock-1.2.fastq.gz,data/empty_bed.bed,data/K562_hetSNP.txt
